country,city,hotel,RoomType,Market Type,Tariff Type,Description,Minimum No of Nights,Max No of Nights,Valid From,Valid To,Meal Plan,Inclusion,Service Tax %,Service Tax Payable By,Settlement Mode,Rate Type,Commission Percentage,Cancellation Template,Base Adult Accomodation,Tariff for 1st adult,ExtraAdult,Allow More Adults,Extra adult price,Allow Children,Max no. of Children Allowedæ*,No. of Children Without Extra Bed,No. of Children With Extra Bed,From Age,To Age,With/Without extra bed,Tariff for child w/o extra bed,Inventory per day for Total Validity Period,Release Inventory,No Of Rooms to be Released,Tax Included in Tariff
India,Kasauli,AAA Hotel and Restaurant,Semi Deluxe Room,Both,Standalone,"Situated near beautiful surroundings with lush greens mountains, this place has a picture perfect view. The place has an in house restaurant that caters yummy meals to its guests. The place also has many activities that will keep you engaged throughout the day. There are nature walks, trekking to explore the area. There are well organized camping’s and outdoor games. At night you can enjoy the coziness around the bonfire with soothing music.",1,,26/07/2016 06:42,12/31/2016 0:00,EP,,0.0,Customer,Cut off pay,Commissionable Rate,10,"Relaxed: 24 hours, No Refund",3,"1033, 1033, 1033",0,N,0,Yes,2,2,0,0,5,No,0,6,-1,All,Yes
India,Kasauli,AAA Hotel and Restaurant,Deluxe Room,Both,Standalone,"Situated near beautiful surroundings with lush greens mountains, this place has a picture perfect view. The place has an in house restaurant that caters yummy meals to its guests. The place also has many activities that will keep you engaged throughout the day. There are nature walks, trekking to explore the area. There are well organized camping’s and outdoor games. At night you can enjoy the coziness around the bonfire with soothing music.",1,,26/07/2016 06:42,12/31/2016 0:00,EP,,0.0,Customer,Cut off pay,Commissionable Rate,10,"Relaxed: 24 hours, No Refund",3,"1400, 1400, 1400",0,N,0,Yes,2,2,0,0,5,No,0,5,-1,All,Yes
India,Kasauli,AAA Hotel and Restaurant,Super Deluxe Room,Both,Standalone,"Situated near beautiful surroundings with lush greens mountains, this place has a picture perfect view. The place has an in house restaurant that caters yummy meals to its guests. The place also has many activities that will keep you engaged throughout the day. There are nature walks, trekking to explore the area. There are well organized camping’s and outdoor games. At night you can enjoy the coziness around the bonfire with soothing music.",1,,26/07/2016 06:42,12/31/2016 0:00,EP,,0.0,Customer,Cut off pay,Commissionable Rate,10,"Relaxed: 24 hours, No Refund",3,"1600, 1600, 1600",0,N,0,Yes,2,2,0,0,5,No,0,5,-1,All,Yes
